<?xml version="1.0" encoding="utf-8"?>
<!-- Generator: Adobe Illustrator 17.1.0, SVG Export Plug-In . SVG Version: 6.00 Build 0)  -->
<!DOCTYPE svg PUBLIC "-//W3C//DTD SVG 1.1//EN" "http://www.w3.org/Graphics/SVG/1.1/DTD/svg11.dtd">
<svg version="1.1" id="圖層_1" xmlns="http://www.w3.org/2000/svg" xmlns:xlink="http://www.w3.org/1999/xlink" x="0px" y="0px"
	 viewBox="0 0 361.3 48.5" enable-background="new 0 0 361.3 48.5" xml:space="preserve">
<g>
	<path fill="none" stroke="#A48B78" stroke-width="0.5" stroke-miterlimit="10" d="M52.8,46.9c0,0.3-0.1,0.4-0.4,0.4
		c-1,0-2.4,0-4.5-0.1c-2.1-0.1-3.6-0.1-4.5-0.1c-1.2,0-2.7,0-4.4,0.1c-1.6,0.1-2.9,0.1-3.9,0.1c-0.2,0-0.3-0.1-0.3-0.4
		s0.1-0.4,0.3-0.4c1.2,0,2.1-0.1,2.7-0.4c0.6-0.3,0.8-0.7,0.8-1.4c0-0.8-0.5-2.2-1.4-4.1l-7.5-14.8H17l-5.1,11.3
		c-0.6,1.4-0.9,2.7-0.9,3.9c0,1.7,0.6,3.1,1.8,4c1.2,1,2.9,1.4,4.9,1.4c0.2,0,0.4,0.1,0.4,0.4s-0.1,0.4-0.4,0.4
		c-0.9,0-2.1,0-3.7-0.1c-1.8-0.1-3.4-0.1-4.8-0.1c-1.3,0-2.9,0-4.7,0.1c-1.6,0.1-3,0.1-4,0.1c-0.2,0-0.3-0.1-0.3-0.4
		s0.1-0.4,0.3-0.4c1.3,0,2.5-0.3,3.4-0.8c0.9-0.6,1.8-1.5,2.7-3c0.9-1.4,2-3.5,3.2-6.3L25.5,2c0.1-0.1,0.3-0.2,0.6-0.2
		c0.4,0,0.6,0.1,0.6,0.2l18,35.4c1.7,3.4,3.1,5.8,4.2,7.1c1.1,1.3,2.3,1.9,3.5,1.9C52.7,46.5,52.8,46.6,52.8,46.9z M17.9,23.8h10.9
		L23,12.4L17.9,23.8z"/>
	<path fill="none" stroke="#A48B78" stroke-width="0.5" stroke-miterlimit="10" d="M88.6,26.1c2.4,2.2,3.6,4.9,3.6,8.2
		c0,2.5-0.7,4.8-2.2,6.8c-1.4,2-3.4,3.6-6,4.8c-2.5,1.2-5.4,1.8-8.5,1.8c-1.3,0-2.9-0.1-4.6-0.2c-0.7,0-1.5-0.1-2.5-0.1
		c-1,0-2.1-0.1-3.3-0.1l-5.3,0.1c-1,0-2.3,0.1-3.9,0.1c-0.1,0-0.2-0.1-0.2-0.4s0.1-0.4,0.2-0.4c1.4,0,2.4-0.1,3.2-0.4
		c0.7-0.3,1.2-0.7,1.5-1.4c0.3-0.7,0.5-1.7,0.5-3.1V8.2c0-2-0.3-3.3-1-4c-0.7-0.6-2-1-4.1-1C56,3.2,56,3.1,56,2.8s0-0.4,0.1-0.4
		l3.8,0.1c2.2,0.1,4,0.1,5.3,0.1c1.3,0,2.7-0.1,4.2-0.2c0.5,0,1.2-0.1,2.2-0.1c1,0,1.8-0.1,2.5-0.1c4.4,0,7.8,0.8,10.2,2.4
		c2.4,1.6,3.6,3.9,3.6,6.9c0,2.3-0.8,4.4-2.3,6.3S81.8,21,79,22.1C83,22.5,86.3,23.9,88.6,26.1z M70.1,4.7c-0.5,0.6-0.8,1.9-0.8,3.6
		V22l2.9,0.1c2.5,0,4.4-0.9,5.8-2.8c1.3-1.9,2-4.3,2-7.2c0-2.7-0.6-4.8-1.8-6.2C77,4.4,75.2,3.7,73,3.7C71.6,3.7,70.6,4,70.1,4.7z
		 M83.8,36c0-3.7-0.9-6.6-2.7-8.8C79.3,25.1,76.6,24,73,24c-1.4,0-2.6,0-3.7,0.1v17.4c0,1.6,0.3,2.7,0.9,3.3c0.6,0.6,2,1,4.1,1
		C80.6,45.8,83.8,42.6,83.8,36z"/>
	<path fill="none" stroke="#A48B78" stroke-width="0.5" stroke-miterlimit="10" d="M111.1,45.1c-3.5-2.1-6.2-4.9-8.1-8.5
		c-1.9-3.6-2.8-7.5-2.8-11.7c0-4.9,1.2-9.2,3.7-12.7c2.5-3.5,5.7-6.2,9.6-8c3.9-1.8,7.9-2.7,12-2.7c4.6,0,8.6,1.1,12,3.2
		c3.5,2.1,6.1,5,8,8.5c1.8,3.5,2.8,7.2,2.8,11.2c0,4.4-1.2,8.4-3.5,12c-2.3,3.6-5.4,6.5-9.3,8.6c-3.9,2.1-8.1,3.2-12.6,3.2
		C118.5,48.2,114.6,47.2,111.1,45.1z M132.6,44.1c2.1-1.6,3.8-3.8,5-6.8c1.2-3,1.8-6.6,1.8-10.8c0-4.4-0.7-8.4-2-11.8
		c-1.3-3.5-3.3-6.2-5.8-8.2c-2.5-2-5.5-3-8.9-3c-4.4,0-7.7,1.6-10.1,4.9c-2.4,3.3-3.5,7.9-3.5,13.8c0,4.7,0.7,8.8,2.1,12.5
		c1.4,3.7,3.4,6.5,5.8,8.6c2.5,2.1,5.3,3.1,8.4,3.1C128.1,46.4,130.5,45.6,132.6,44.1z"/>
	<path fill="none" stroke="#A48B78" stroke-width="0.5" stroke-miterlimit="10" d="M205,46.9c0,0.3-0.1,0.4-0.2,0.4l-6.4-0.1
		l-5.1,0.1c-0.6,0-0.9-0.1-1.1-0.2c-0.2-0.1-0.3-0.5-0.3-1.2v-4.9c-2.5,2.4-5.1,4.2-7.6,5.4c-2.5,1.2-5.3,1.7-8.4,1.7
		c-3.1,0-6-0.6-8.5-1.8c-2.6-1.2-4.6-2.8-6.1-5c-1.5-2.2-2.2-4.7-2.2-7.5V8.2c0-1.4-0.1-2.5-0.4-3.2c-0.2-0.7-0.7-1.1-1.4-1.4
		c-0.7-0.3-1.8-0.4-3.3-0.4c-0.1,0-0.2-0.1-0.2-0.4s0.1-0.4,0.2-0.4l3.8,0.1c2.2,0.1,4,0.1,5.3,0.1c1.4,0,3.3,0,5.5-0.1l3.7-0.1
		c0.1,0,0.1,0.1,0.1,0.4s0,0.4-0.1,0.4c-1.5,0-2.6,0.1-3.3,0.4s-1.2,0.8-1.5,1.5c-0.3,0.7-0.4,1.8-0.4,3.2v23.1
		c0,4.5,1.1,7.9,3.2,10.3c2.1,2.4,5,3.6,8.6,3.6c2.3,0,4.5-0.5,6.6-1.5c2.1-1,4.2-2.6,6.5-4.8V8.3c0-1.4-0.1-2.5-0.4-3.2
		c-0.2-0.7-0.7-1.2-1.4-1.5c-0.7-0.3-1.8-0.4-3.3-0.4c-0.1,0-0.1-0.1-0.1-0.4s0-0.4,0.1-0.4l3.8,0.1c2.1,0.1,3.8,0.1,5,0.1
		c1.4,0,3.1,0,5.3-0.1l3.9-0.1c0.1,0,0.2,0.1,0.2,0.4s-0.1,0.4-0.2,0.4c-1.5,0-2.6,0.1-3.3,0.4c-0.7,0.3-1.2,0.7-1.5,1.4
		c-0.3,0.7-0.4,1.7-0.4,3.2v33.3c0,1.4,0.1,2.5,0.4,3.2c0.3,0.7,0.7,1.2,1.4,1.4c0.7,0.2,1.8,0.4,3.3,0.4
		C204.9,46.5,205,46.6,205,46.9z"/>
	<path fill="none" stroke="#A48B78" stroke-width="0.5" stroke-miterlimit="10" d="M211.5,15.2c0,0.1-0.2,0.2-0.4,0.2
		c-0.2,0-0.4-0.1-0.4-0.3c0.2-1.9,0.4-4.4,0.6-7.5c0.2-3,0.4-5.3,0.4-6.9c0-0.2,0.1-0.4,0.4-0.4c0.3,0,0.4,0.1,0.4,0.4
		c0,1.1,1.4,1.6,4.1,1.6c4.1,0.1,9,0.2,14.5,0.2c2.8,0,5.8,0,9-0.1l4.9-0.1c1.8,0,3.2-0.1,4-0.4c0.8-0.2,1.4-0.7,1.6-1.4
		c0-0.2,0.2-0.3,0.5-0.3c0.3,0,0.4,0.1,0.4,0.3c-0.1,1.4-0.3,3.7-0.5,6.9c-0.2,3.2-0.3,5.7-0.3,7.6c0,0.1-0.1,0.2-0.4,0.2
		s-0.4-0.1-0.4-0.2c-0.7-3.7-2.1-6.5-4-8.3c-2-1.8-4.4-2.8-7.3-2.8c-1.4,0-2.3,0.3-2.8,0.9c-0.5,0.6-0.7,1.7-0.7,3.4v33.2
		c0,1.5,0.1,2.6,0.4,3.2c0.3,0.7,0.8,1.1,1.7,1.4c0.8,0.2,2.1,0.4,3.9,0.4c0.1,0,0.2,0.1,0.2,0.4s-0.1,0.4-0.2,0.4
		c-1.7,0-3.1,0-4.1-0.1l-6-0.1l-5.8,0.1c-1,0-2.4,0.1-4.2,0.1c-0.1,0-0.2-0.1-0.2-0.4s0.1-0.4,0.2-0.4c1.7,0,3-0.1,3.9-0.4
		c0.8-0.2,1.4-0.7,1.7-1.4c0.3-0.7,0.5-1.8,0.5-3.2V8.2c0-1.6-0.2-2.7-0.6-3.3S225.2,4,223.8,4C218.1,4,214,7.7,211.5,15.2z"/>
	<path fill="none" stroke="#A48B78" stroke-width="0.5" stroke-miterlimit="10" d="M324.9,46.9c0,0.3-0.1,0.4-0.2,0.4l-6.4-0.1
		l-5.1,0.1c-0.6,0-0.9-0.1-1.1-0.2c-0.2-0.1-0.3-0.5-0.3-1.2v-4.9c-2.5,2.4-5.1,4.2-7.6,5.4c-2.5,1.2-5.3,1.7-8.4,1.7
		c-3.1,0-6-0.6-8.5-1.8c-2.6-1.2-4.6-2.8-6.1-5c-1.5-2.2-2.2-4.7-2.2-7.5V8.2c0-1.4-0.1-2.5-0.4-3.2c-0.2-0.7-0.7-1.1-1.4-1.4
		c-0.7-0.3-1.8-0.4-3.3-0.4c-0.1,0-0.2-0.1-0.2-0.4s0.1-0.4,0.2-0.4l3.8,0.1c2.2,0.1,4,0.1,5.3,0.1c1.4,0,3.3,0,5.5-0.1l3.7-0.1
		c0.1,0,0.1,0.1,0.1,0.4s0,0.4-0.1,0.4c-1.5,0-2.6,0.1-3.3,0.4s-1.2,0.8-1.5,1.5c-0.3,0.7-0.4,1.8-0.4,3.2v23.1
		c0,4.5,1.1,7.9,3.2,10.3c2.1,2.4,5,3.6,8.6,3.6c2.3,0,4.5-0.5,6.6-1.5c2.1-1,4.2-2.6,6.5-4.8V8.3c0-1.4-0.1-2.5-0.4-3.2
		c-0.2-0.7-0.7-1.2-1.4-1.5c-0.7-0.3-1.8-0.4-3.3-0.4c-0.1,0-0.1-0.1-0.1-0.4s0-0.4,0.1-0.4l3.8,0.1c2.1,0.1,3.8,0.1,5,0.1
		c1.4,0,3.1,0,5.3-0.1l3.9-0.1c0.1,0,0.2,0.1,0.2,0.4s-0.1,0.4-0.2,0.4c-1.5,0-2.6,0.1-3.3,0.4c-0.7,0.3-1.2,0.7-1.5,1.4
		c-0.3,0.7-0.4,1.7-0.4,3.2v33.3c0,1.4,0.1,2.5,0.4,3.2c0.3,0.7,0.7,1.2,1.4,1.4c0.7,0.2,1.8,0.4,3.3,0.4
		C324.8,46.5,324.9,46.6,324.9,46.9z"/>
	<path fill="none" stroke="#A48B78" stroke-width="0.5" stroke-miterlimit="10" d="M341.6,14.2c0.9,1.3,2,2.5,3.3,3.5
		c1.3,1,3,2.2,5.3,3.7c2.4,1.5,4.3,2.9,5.8,4c1.4,1.2,2.7,2.6,3.7,4.2c1,1.7,1.5,3.6,1.5,5.7c0,2.5-0.7,4.7-2,6.7
		c-1.3,1.9-3.2,3.5-5.6,4.5s-5,1.6-8,1.6c-2.2,0-4.4-0.3-6.8-0.9s-3.9-1.3-4.8-2c-0.2-0.2-0.4-0.4-0.5-0.5c-0.1-0.2-0.2-0.4-0.2-0.8
		L333,32.5v-0.1c0-0.2,0.1-0.3,0.4-0.3c0.2,0,0.4,0.1,0.4,0.3c1.4,2.9,2.7,5.3,3.8,7.1c1.1,1.8,2.4,3.4,4.1,4.8
		c1.7,1.4,3.5,2.1,5.7,2.1c1.9,0,3.5-0.5,4.8-1.5c1.2-1,1.9-2.8,1.9-5.3c0-2.1-0.5-4-1.4-5.5s-2.1-2.9-3.4-4c-1.3-1.1-3.2-2.4-5.5-4
		c-2.3-1.5-4.1-2.8-5.4-3.8c-1.3-1.1-2.4-2.3-3.3-3.8c-0.9-1.5-1.4-3.2-1.4-5.3c0-2.5,0.7-4.7,2.2-6.4c1.5-1.8,3.3-3,5.7-3.9
		c2.3-0.8,4.7-1.3,7.3-1.3c1.7,0,3.4,0.2,5.1,0.5c1.7,0.3,3.1,0.7,4.2,1.1c0.4,0.2,0.7,0.4,0.9,0.6c0.1,0.2,0.2,0.5,0.2,0.8v10.6
		c0,0.1-0.1,0.3-0.4,0.3c-0.2,0.1-0.4,0-0.4-0.1l-0.6-1.4c-1.2-3-2.6-5.6-4.2-7.7c-1.6-2.1-3.9-3.2-6.7-3.2c-1.9,0-3.5,0.6-4.7,1.7
		c-1.2,1.1-1.8,2.7-1.8,4.8C340.2,11.3,340.7,12.9,341.6,14.2z"/>
</g>
</svg>
